{
    "KPlugin": {
        "Authors": [
            {
                "Email": "meven.car(at)kdemail.net",
                "Name": "Méven Car",
                "Name[az]": "Méven Car",
                "Name[ca]": "Méven Car",
                "Name[cs]": "Méven Car",
                "Name[da]": "Méven Car",
                "Name[de]": "Méven Car",
                "Name[el]": "Méven Car",
                "Name[en_GB]": "Méven Car",
                "Name[es]": "Méven Car",
                "Name[et]": "Méven Car",
                "Name[eu]": "Méven Car",
                "Name[fi]": "Méven Car",
                "Name[fr]": "Méven Car",
                "Name[gl]": "Méven Car",
                "Name[hu]": "Méven Car",
                "Name[ia]": "Méven Car",
                "Name[id]": "Méven Car",
                "Name[it]": "Méven Car",
                "Name[ko]": "Méven Car",
                "Name[lt]": "Méven Car",
                "Name[nl]": "Méven Car",
                "Name[nn]": "Méven Car",
                "Name[pl]": "Méven Car",
                "Name[pt]": "Méven Car",
                "Name[pt_BR]": "Méven Car",
                "Name[ru]": "Méven Car",
                "Name[sk]": "Méven Car",
                "Name[sl]": "Méven Car",
                "Name[sv]": "Méven Car",
                "Name[uk]": "Méven Car",
                "Name[x-test]": "xxMéven Carxx",
                "Name[zh_CN]": "Méven Car",
                "Name[zh_TW]": "Méven Car"
            }
        ],
        "Category": "",
        "Dependencies": [],
        "Description": "Collects events from applications that use GtkFileChooser and GtkRecentManager as specified by https://www.freedesktop.org/wiki/Specifications/desktop-bookmark-spec/",
        "Description[az]": "GtkFileChooser və GtkRecentManager istifadə edən tətbiqlərdən hadisələri https://www.freedesktop.org/wiki/Specifications/desktop-bookmark-spec/ tərəfindən xüsusiyyətlərinə görə toplayır",
        "Description[ca]": "Recull els esdeveniments de les aplicacions que usen «GtkFileChooser» i «GtkRecentManager» segons l'especificat pel https://www.freedesktop.org/wiki/Specifications/desktop-bookmark-spec/",
        "Description[da]": "Indsamler hændelser fra programmer der bruger GtkFileChooser og GtkRecentManager som specificeret på https://www.freedesktop.org/wiki/Specifications/desktop-bookmark-spec/",
        "Description[de]": "Sammelt Ereignisse von Anwendungen, die GtkFileChooser and GtkRecentManager nach der Spezifikation von https://www.freedesktop.org/wiki/Specifications/desktop-bookmark-spec/ verwenden.",
        "Description[el]": "Συλλέγει γεγονότα από εφαρμογές που χρησιμοποιούν GtkFileChooser και GtkRecentManager όπως ορίζεται από το https://www.freedesktop.org/wiki/Specifications/desktop-bookmark-spec/",
        "Description[en_GB]": "Collects events from applications that use GtkFileChooser and GtkRecentManager as specified by https://www.freedesktop.org/wiki/Specifications/desktop-bookmark-spec/",
        "Description[es]": "Recolecta eventos de aplicaciones que usan GtkFileChooser y GtkRecentManager como se indica en https://www.freedesktop.org/wiki/Specifications/desktop-bookmark-spec/",
        "Description[et]": "Sündmuste kogumine rakendustelt, mis kasutavad GtkFileChooser'it ja GtkRecentManager'i, nagu see on määratud spetsifikatsioonis https://www.freedesktop.org/wiki/Specifications/desktop-bookmark-spec/",
        "Description[eu]": "GtkFileChooser eta GtkRecentManager erabiltzen duten aplikazioen gertaerak biltzen ditu  https://www.freedesktop.org/wiki/Specifications/desktop-bookmark-spec  zehaztu bezala",
        "Description[fi]": "Kerää tapahtumat GtkFileChooseria ja GtkRecentManageriä käyttävistä sovelluksista siten kuin https://www.freedesktop.org/wiki/Specifications/desktop-bookmark-spec/ määrittää",
        "Description[fr]": "Collecte les évènements d'applications utilisant GtkFileChooser et GtkRecentManager tel que spécifié par https://www.freedesktop.org/wiki/Specifications/desktop-bookmark-spec/",
        "Description[gl]": "Recolle eventos de aplicacións que usan GtkFileChooser e GtkRecentManager como se indica en https://www.freedesktop.org/wiki/Specifications/desktop-bookmark-spec/",
        "Description[hu]": "Eseményeket gyűjt olyan alkalmazásoktól, amik a GtkFileChooser és GtkRecentManager API-t használják, ahogy itt specifikálták: https://www.freedesktop.org/wiki/Specifications/desktop-bookmark-spec/",
        "Description[id]": "Memungut peristiwa dari aplikasi yang menggunakan GtkFileChooser dan GtkRecentManager sebagaimana ditentukan oleh https://www.freedesktop.org/wiki/Specifications/desktop-bookmark-spec/",
        "Description[it]": "Raccoglie gli eventi da applicazioni che usano GtkFileChooser e GtkRecentManager come indicato da https://www.freedesktop.org/wiki/Specifications/desktop-bookmark-spec/",
        "Description[ko]": "GtkFileChooser와 GtkRecentManager를 사용하는 프로그램의 이벤트를 수집합니다. 참조: https://www.freedesktop.org/wiki/Specifications/desktop-bookmark-spec/",
        "Description[lt]": "Surenka įvykius iš programų, kurios naudoja GtkFileChooser ir GtkRecentManager, kaip tai nurodyta https://www.freedesktop.org/wiki/Specifications/desktop-bookmark-spec/",
        "Description[nl]": "Verzamelt gebeurtenissen uit toepassingen die GtkFileChooser en GtkRecentManager gebruiken zoals gespecificeerd door https://www.freedesktop.org/wiki/Specifications/desktop-bookmark-spec/",
        "Description[nn]": "Samla hendingar frå program som brukar GtkFileChooser og GtkRecentManager som definert i https://www.freedesktop.org/wiki/Specifications/desktop-bookmark-spec/",
        "Description[pl]": "Gromadzi wydarzenia z aplikacji, które używają GtkFileChooser oraz GtkRecentManager wg https://www.freedesktop.org/wiki/Specifications/desktop-bookmark-spec/",
        "Description[pt]": "Recolhe eventos das aplicações que usam o GtkFileChooser e o GtkRecentManager, de acordo com o definido em https://www.freedesktop.org/wiki/Specifications/desktop-bookmark-spec/",
        "Description[pt_BR]": "Coleta eventos dos aplicativos que usam o GtkFileChooser e o GtkRecentManager, de acordo com o definido em https://www.freedesktop.org/wiki/Specifications/desktop-bookmark-spec/",
        "Description[ru]": "Собирает события от приложений, использующих интерфейсы GtkFileChooser и GtkRecentManager в соответствии со спецификациями, опубликованными по адресу https://www.freedesktop.org/wiki/Specifications/desktop-bookmark-spec/",
        "Description[sk]": "Zbiera udalosti z aplikácií, ktoré používajú GtkFileChooser a GtkRecentManager ako je uvedené v https://www.freedesktop.org/wiki/Specifications/desktop-bookmark-spec/",
        "Description[sl]": "Zbira dogodke od programov, ki uporabljajo GtkFileChooser in GtkRecentManager kot je določeno v https://www.freedesktop.org/wiki/Specifications/desktop-bookmark-spec/",
        "Description[sv]": "Samlar in händelser från program som använder GtkFileChooser och GtkRecentManager som anges av https://www.freedesktop.org/wiki/Specifications/desktop-bookmark-spec/",
        "Description[uk]": "Збирає повідомлення про події від програм, у яких використовується GtkFileChooser та GtkRecentManager, відповідно до https://www.freedesktop.org/wiki/Specifications/desktop-bookmark-spec/",
        "Description[x-test]": "xxCollects events from applications that use GtkFileChooser and GtkRecentManager as specified by https://www.freedesktop.org/wiki/Specifications/desktop-bookmark-spec/xx",
        "Description[zh_CN]": "从使用 GtkFileChooser 和 GtkRecentManager 的应用程序收集事件，规范遵循 https://www.freedesktop.org/wiki/Specifications/desktop-bookmark-spec/",
        "Description[zh_TW]": "收集如 https://www.freedesktop.org/wiki/Specifications/desktop-bookmark-spec/ 定義之使用 GtkFileChooser 及 GtkRecentManager 應用程式的事件",
        "EnabledByDefault": true,
        "Icon": "preferences-system",
        "Id": "org.kde.ActivityManager.GtkEventSpy",
        "License": "GPL",
        "Name": "Gtk Event Spy",
        "Name[az]": "GTK hadisələrinin izlənməsi",
        "Name[ca]": "Espia els esdeveniments Gtk",
        "Name[cs]": "Špeh událostí Gtk",
        "Name[da]": "Gtk-hændelsesspion",
        "Name[de]": "GTK-Ereignisspion",
        "Name[el]": "Gtk Event Spy",
        "Name[en_GB]": "Gtk Event Spy",
        "Name[es]": "Espía de eventos de Gtk",
        "Name[et]": "Gtk sündmusevalvur",
        "Name[eu]": "Gtk gertaeren espioia",
        "Name[fi]": "Gtk-tapahtumavakooja",
        "Name[fr]": "Espion d'évènements Gtk",
        "Name[gl]": "Espía de eventos de GTK",
        "Name[hu]": "GTK eseményfigyelő",
        "Name[ia]": "Gtk Event Spy  (Spia de evento de GTK)",
        "Name[id]": "Event Spy Gtk",
        "Name[it]": "Spia degli eventi Gtk",
        "Name[ko]": "Gtk 이벤트 스파이",
        "Name[lt]": "Gtk įvykių šnipas",
        "Name[nl]": "Gtk gebeurtenisspion",
        "Name[nn]": "Gtk-hendingsovervaking",
        "Name[pl]": "Szpieg wydarzeń Gtk",
        "Name[pt]": "Espião de Eventos do Gtk",
        "Name[pt_BR]": "Espião de eventos do Gtk",
        "Name[ru]": "Монитор событий GTK",
        "Name[sk]": "Špión udalostí Gtk",
        "Name[sl]": "Gtk nadzornik dogodkov",
        "Name[sv]": "GTK-händelseövervakare",
        "Name[uk]": "Журнал подій Gtk",
        "Name[x-test]": "xxGtk Event Spyxx",
        "Name[zh_CN]": "Gtk 时间监听",
        "Name[zh_TW]": "Gtk 事件探測",
        "ServiceTypes": [
            "ActivityManager/Plugin"
        ],
        "Version": "1.0",
        "Website": "https://kde.org/plasma-desktop"
    }
}
